Suport Vector Regression Machine - SVRM
…
É possível todas as correlações entre todas as variáveis da base, com a função data_vis_cor. Um gráfico útil com as correlações poderá ser obtido usando a função vis_cor, conforme abaixo:

visdat::data_vis_cor(dados)

# A tibble: 144 × 3
   row_1         row_2                  value
   <chr>         <chr>                  <dbl>
 1 fixed acidity fixed acidity         1     
 2 fixed acidity volatile acidity     -0.256 
 3 fixed acidity citric acid           0.672 
 4 fixed acidity residual sugar        0.115 
 5 fixed acidity chlorides             0.0937
 6 fixed acidity free sulfur dioxide  -0.154 
 7 fixed acidity total sulfur dioxide -0.113 
 8 fixed acidity density               0.668 
 9 fixed acidity pH                   -0.683 
10 fixed acidity sulphates             0.183 
# ℹ 134 more rows
…
Fácil, assim:

receita_1 |> 
  prep() |> 
  juice()

# A tibble: 1,278 × 12
   `fixed acidity` `volatile acidity` `citric acid` `residual sugar` chlorides
             <dbl>              <dbl>         <dbl>            <dbl>     <dbl>
 1         -0.446              1.00          -1.52            -0.602   -0.245 
 2         -0.162              1.77          -1.52             0.559    0.198 
 3         -0.162              1.28          -1.25             0.154    0.0774
 4         -0.446              1.00          -1.52            -0.602   -0.245 
 5         -0.446              0.813         -1.52            -0.845   -0.265 
 6         -0.0949             0.508         -1.12            -1.42    -0.386 
 7         -0.373             -0.0496         0.527            2.10    -0.346 
 8         -1.01               0.402         -0.994           -0.845    0.178 
 9         -0.373             -0.0496         0.527            2.10    -0.346 
10         -0.162              0.560          0.186           -1.42     0.521 
# ℹ 1,268 more rows
# ℹ 7 more variables: `free sulfur dioxide` <dbl>,
#   `total sulfur dioxide` <dbl>, density <dbl>, pH <dbl>, sulphates <dbl>,
#   alcohol <dbl>, quality <dbl>
…
Poderíamos utilizar a função bake ao invés da juice. A diferença de uma para a outra é que a função bake utiliza uma receita já estimada com prep e poderá ser aplicada à novos dados. Já a juice
 retorna a tibble com a receita preparada para o conjunto de dados de 
treinamento, ou ao conjunto de dados ao qual uma receita foi preparada 
com prep. Usando bake para o conjunto de dados de treinamento, poderíamos fazer:

receita_1 |> 
  prep() |> 
  bake(new_data = treinamento)

# A tibble: 1,278 × 12
   `fixed acidity` `volatile acidity` `citric acid` `residual sugar` chlorides
             <dbl>              <dbl>         <dbl>            <dbl>     <dbl>
 1         -0.446              1.00          -1.52            -0.602   -0.245 
 2         -0.162              1.77          -1.52             0.559    0.198 
 3         -0.162              1.28          -1.25             0.154    0.0774
 4         -0.446              1.00          -1.52            -0.602   -0.245 
 5         -0.446              0.813         -1.52            -0.845   -0.265 
 6         -0.0949             0.508         -1.12            -1.42    -0.386 
 7         -0.373             -0.0496         0.527            2.10    -0.346 
 8         -1.01               0.402         -0.994           -0.845    0.178 
 9         -0.373             -0.0496         0.527            2.10    -0.346 
10         -0.162              0.560          0.186           -1.42     0.521 
# ℹ 1,268 more rows
# ℹ 7 more variables: `free sulfur dioxide` <dbl>,
#   `total sulfur dioxide` <dbl>, density <dbl>, pH <dbl>, sulphates <dbl>,
#   alcohol <dbl>, quality <dbl>
…
Vamos agora selecionar o melhor modelo dentre os modelos comparados. 
Isso não quer dizer que o modelo seja bom para resolver o problema em 
questão. Para ver um rank e saber qual modelo e receita foram as 
melhores, fazemos:

treino |> 
  rank_results()

# A tibble: 240 × 9
   wflow_id         .config .metric  mean std_err     n preprocessor model  rank
   <chr>            <chr>   <chr>   <dbl>   <dbl> <int> <chr>        <chr> <int>
 1 recipe_2_knn_fit Prepro… rmse    0.632  0.0168     8 recipe       near…     1
 2 recipe_2_knn_fit Prepro… rsq     0.392  0.0182     8 recipe       near…     1
 3 recipe_1_knn_fit Prepro… rmse    0.632  0.0168     8 recipe       near…     2
 4 recipe_1_knn_fit Prepro… rsq     0.392  0.0182     8 recipe       near…     2
 5 recipe_1_knn_fit Prepro… rmse    0.633  0.0165     8 recipe       near…     3
 6 recipe_1_knn_fit Prepro… rsq     0.391  0.0174     8 recipe       near…     3
 7 recipe_2_knn_fit Prepro… rmse    0.633  0.0165     8 recipe       near…     4
 8 recipe_2_knn_fit Prepro… rsq     0.391  0.0174     8 recipe       near…     4
 9 recipe_2_knn_fit Prepro… rmse    0.633  0.0169     8 recipe       near…     5
10 recipe_2_knn_fit Prepro… rsq     0.390  0.0188     8 recipe       near…     5
# ℹ 230 more rows
…
